948212 531259 525
656043 605233 509
973038 731467 525
988414 67768 525
305404 696009 509
281186 999505 525
914145 948337 507
649318 162336 509
840932 66615 525
862879 56176 525
423372 334663 449
993954 396096 525
727145 794378 468
224760 912227 525
601687 841669 525
659885 808202 504
558857 851729 525
135213 913208 525
684664 366193 509
540897 690540 509
167285 221257 386
531148 710025 509
71228 277311 443
71430 774091 509
457785 64080 449
265769 427761 449
543201 538829 408
511868 844193 525
795157 982698 525
43269 436684 449
914035 418773 525
444891 97458 449
546664 285946 470
513045 329918 470
56301 260550 443
961572 898686 507
514369 585545 452
920458 88078 525
151044 692848 509
683167 195634 509
93495 457453 449
407877 642025 509
687401 994255 525
112675 187751 383
900755 421820 525
841901 666564 525
309707 751653 509
874440 507405 525
575664 636576 509
18254 199003 383
359754 943634 525
417599 462852 444
583391 252350 470
760989 820461 468
289004 674426 509
342994 700309 509
100490 636144 509
607574 901635 525
596309 440702 470
198646 729055 509
457906 785366 509
566885 717207 509
137761 784581 509
73524 250296 443
46822 542269 470
762477 148220 509
614178 315896 470
356745 464228 449
270581 294786 389
436749 179041 449
637951 580564 509
979543 350266 525
179366 638940 509
313238 156713 443
761802 593180 509
935898 866676 476
430211 75888 449
217181 536025 470
95735 797704 509
465555 443776 444
329669 258242 407
765890 984104 525
584733 759138 509
843685 720362 525
254525 492218 449
911144 498463 525
469170 361563 449
958225 500898 525
598743 429619 470
104854 730185 509
196325 993392 525
33305 674517 509
712403 841742 525
663432 819417 504
502701 758709 509
100242 256177 443
291540 812231 509
396433 707990 509
152028 314263 443
640393 724467 504
765824 954400 525
572371 971830 525
358852 13284 443
396916 735540 509
650597 62763 509
621951 120185 470
247248 809017 509
520963 775371 509
982034 183104 525
751660 776885 468
300678 564514 470
944371 561885 525
912765 234930 525
922186 772781 525
678155 257698 509
121741 272679 443
438246 785993 509
886350 340646 525
100960 147344 375
29469 446784 449
414561 837869 525
643352 575286 509
219738 36730 386
78114 448959 449
923328 866868 476
457304 451442 369
897049 618535 525
267022 401328 441
509611 916997 525
554738 358312 470
156411 942693 525
810506 891966 525
598259 860820 525
669318 636681 442
331831 393809 441
284715 272948 389
173224 283833 443
801704 645581 504
845990 495457 525
432225 198079 449
472005 645026 509
121921 554663 470
507722 944242 525
346554 113681 443
951139 493437 525
618084 314444 470
770715 888069 525
64205 733206 509
66114 763211 509
227135 104857 386
151801 322271 443
821674 671887 504
454629 930811 525
648626 368139 509
665972 297700 509
115931 713481 509
570370 693420 509
408560 745498 509
373947 82006 443
187061 176131 365
373279 186183 443
774899 159051 509
611461 784136 509
778465 565710 509
589916 214917 470
684329 95602 509
659800 34056 509
311214 45217 443
987291 372955 525
605017 420663 470
398855 140456 443
337781 80823 443
24554 75993 340
909983 531448 525
911288 361589 525
547491 711025 509
171611 52193 383
764223 33354 509
262142 861002 525
443238 368142 449
497074 710341 509
478283 265949 449
670689 431191 509
811124 219673 509
688390 524671 509
918107 654442 525
657691 86650 509
357702 243510 441
548403 976526 525
803848 238100 509
278672 189484 443
159154 680203 509
683910 675954 385
52650 564365 470
207761 423931 449
555824 352738 470
987912 815421 525
134637 284835 443
434668 322227 449
3177 699378 509
