759670 33917 509
815634 359676 509
541585 686516 509
103554 467162 449
43940 53310 340
888297 949814 507
985240 15606 525
942491 534977 525
706823 219026 509
522088 206892 470
538069 933083 525
373974 321954 441
816344 141448 509
117544 727222 509
192834 207670 373
945668 292733 525
186559 974037 525
671644 231687 509
894748 879036 445
766261 682648 504
761316 904034 525
287303 25650 443
52352 299987 443
271591 46153 443
226791 192944 386
198502 818815 509
677547 845766 525
713537 20473 509
140555 839467 525
916341 616089 525
775936 569464 509
440336 382285 449
659176 922211 525
287856 842474 525
575475 986894 525
861098 708609 525
349437 632617 509
160067 809691 509
998137 811096 525
175429 187931 365
873712 944978 507
982341 766793 525
661523 453539 509
677550 185452 509
211600 610542 470
446940 4749 449
837627 846279 525
847098 394113 525
16150 641208 509
409212 518856 470
480703 168376 449
85329 980160 525
864313 163647 525
244176 885833 525
726777 140787 509
182350 413715 449
517667 693085 509
974336 816103 525
391724 740508 509
840189 979978 507
261244 666430 509
426559 472359 444
165396 562916 470
254226 122557 443
637344 534633 509
597401 833721 509
703315 292487 509
700108 79621 509
288902 706766 509
551832 551846 191
98187 624090 470
849866 54008 525
197352 256530 443
235280 168687 443
769205 523770 509
699811 345916 509
365961 146939 443
163950 70168 383
468391 957542 525
301859 933087 525
813492 999520 525
496334 406510 449
163146 435694 449
935692 323996 525
711045 602555 509
79089 38948 351
409501 14161 443
929778 408569 525
312365 47704 443
506685 943826 525
193791 250212 443
705392 520267 509
454426 288868 449
924931 101207 525
187454 974526 525
708433 97003 509
542168 724645 509
973584 414541 525
486886 182473 449
872322 259064 525
656990 667950 442
454275 36927 449
772696 464863 509
104270 704491 509
507350 241081 449
686255 558155 509
61936 249240 443
293106 85069 443
995341 467719 525
968086 558178 525
922012 59920 525
97306 991935 525
672269 902698 525
94306 908105 525
557677 25647 470
652814 201879 509
511908 904644 525
771146 746889 468
248015 27489 443
85565 203054 383
537363 294242 470
173024 663422 509
267950 151248 443
992278 146485 525
350407 867174 525
293143 680003 509
744136 347254 509
237791 457281 449
943010 13964 525
158115 298221 443
257771 572067 470
720175 52837 509
257197 645290 509
432449 653615 509
614971 465912 470
49648 970142 525
958807 328672 525
574620 394360 470
392062 942266 525
240250 637990 509
145279 444716 449
438343 413422 418
793592 383325 509
576607 126909 470
683443 689977 398
183315 567309 470
622742 717088 509
300994 890363 525
590342 172959 470
548926 35779 470
865973 993746 507
163201 717724 509
392110 791201 509
105958 596694 470
427927 95255 449
72235 438001 449
13439 986374 525
11549 634577 509
381222 76487 443
987770 749064 525
765586 825337 468
174777 550822 470
752789 788890 468
970744 973654 383
559625 225487 470
785970 265486 509
853820 539845 525
454894 875495 525
645287 239605 509
683842 651237 442
165015 821723 509
545231 967013 525
241338 70014 443
136341 819771 509
348580 727069 509
479718 858243 525
568106 418282 470
887345 215010 525
884621 678178 525
554332 323292 470
708645 566301 509
185944 922389 525
303579 752232 509
702600 829597 504
676743 664514 442
292196 265167 407
912232 402064 525
573047 459544 470
973217 92072 525
905452 485088 525
857787 122322 525
179454 427871 449
406044 723306 509
988689 127187 525
719696 47504 509
646014 801677 504
401660 710194 509
762370 788196 468
190160 125384 383
151560 72791 375
